{
    "ARCHER" : "Archer",
    "ASSASSIN" : "Assassin",
    "CROSSBOWMAN" : "Crossbowman",
    "LORD" : "Lord",
    "MACEMAN" : "Maceman",
    "MONK" : "Monk",
    "PIKEMAN" : "Pikeman",
    "SLAVE" : "Slave",
    "SPEARMAN" : "Spearman",
    "SWORDSMAN" : "Swordsman",
    
    "AIMED_SHOT" : "Aimed Shot",
    "ATTACK_ALL" : "Attack All",
    "INCREASED_DAMAGE" : "Increased Damage",
    "BURNING" : "Burning",
    "HEAL_ALL" : "Heal All",
    "INVISIBILITY" : "Invisibility",
    "POISON_SHOT" : "Poison Shot",
    "RAGE" : "Rage",
    "SHIELD" : "Shield",
    "TAUNT" : "Taunt",
    
    "AIMED_SHOT.DESCRIPTION" : "Removes all targets's positive effects",
    "ATTACK_ALL.DESCRIPTION" : "Attacking all enemies",
    "INCREASED_DAMAGE.DESCRIPTION" : "Increases damage for {0} turns",
    "BURNING.DESCRIPTION" : "Burns all enemies around for {0} turns",
    "HEAL_ALL.DESCRIPTION" : "Healing all allies",
    "INVISIBILITY.DESCRIPTION" : "Makes invisible for enemies for {0} turns",
    "POISON_SHOT.DESCRIPTION" : "Poisons target for {0} turns",
    "RAGE.DESCRIPTION" : "Adds shield and increases damage for {0} turns",
    "SHIELD.DESCRIPTION" : "Heals and adds shield for {0} turns",
    "TAUNT.DESCRIPTION" : "Reduces all enemies damage for {0} turns",
    
    "AIMED_SHOT.PRIMARY" : "Damage",
    "ATTACK_ALL.PRIMARY" : "Damage",
    "INCREASED_DAMAGE.PRIMARY" : "Damage+",
    "HEAL_ALL.PRIMARY" : "Heal",
    "POISON_SHOT.PRIMARY" : "Damage",
    "POISON_SHOT.SECONDARY" : "Poison",
    "SHIELD.PRIMARY" : "Shield",
    "SHIELD.SECONDARY" : "Heal",
    "BURNING.PRIMARY" : "Damage",
    "BURNING.SECONDARY" : "Burning",
    "RAGE.PRIMARY" : "Shield",
    "RAGE.SECONDARY" : "Damage+",
    "TAUNT.PRIMARY" : "Damage-",
    
    "ABBOT" : "Abbot",
    "CALIPH" : "Capiph",
    "EMIR" : "Emir",
    "FRIEDRICH" : "Friedrich",
    "KNIGHT" : "Knight",
    "MARSHAL" : "Marshal",
    "NIZAR" : "Nizar",
    "PHILLIP" : "Phillip",
    "PIG" : "Pig",
    "RAT" : "Rat",
    "RICHARD" : "Richard",
    "SALADIN" : "Saladin",
    "SHERIFF" : "Sheriff",
    "SNAKE" : "Snake",
    "SULTAN" : "Sultan",
    "VIZIR" : "Vizir",
    "WOLF" : "Wolf",
    "CRUSADER" : "Crusader",
    "ARAB" : "Arab",
    
    "QUIT_GAME" : "Are You sure You want to quit?",
    "INPUT_NAME" : "Enter Your Title"

}